Feature Selection Linear Regression
…
full %>% write_csv("./data/final_features_full.csv")
diff %>% write_csv("./data/final_features_diff.csv")
other %>% write_csv("./data/final_features_other.csv")

full <- full %>% mutate(data="full")
diff <- diff %>% mutate(data="diff")
other <- other %>% mutate(data="other")

rbind(full, diff, other) %>%
  filter(n>1) %>%
  dplyr::select(-n)

## # A tibble: 343 x 2
##    feature data 
##    <chr>   <chr>
##  1 atga    full 
##  2 cacg    full 
##  3 aggt    full 
##  4 atca    full 
##  5 caat    full 
##  6 ccac    full 
##  7 ccca    full 
##  8 cgcc    full 
##  9 cgcg    full 
## 10 cgtc    full 
## #  with 333 more rows
…
